module gitlab.com/mergetb/xir

go 1.21.8

require (
	github.com/dustin/go-humanize v1.0.0
	github.com/golang/protobuf v1.4.3
	github.com/labstack/echo/v4 v4.1.17
	github.com/spf13/cobra v1.1.3
	gitlab.com/mergetb/tech/shared/install v0.0.2
	gonum.org/v1/gonum v0.11.0
	google.golang.org/protobuf v1.25.0
)

require (
	github.com/dgrijalva/jwt-go v3.2.0+incompatible // indirect
	github.com/google/go-cmp v0.6.0 // indirect
	github.com/inconshreveable/mousetrap v1.0.0 // indirect
	github.com/labstack/gommon v0.3.0 // indirect
	github.com/mattn/go-colorable v0.1.7 // indirect
	github.com/mattn/go-isatty v0.0.12 // indirect
	github.com/spf13/pflag v1.0.5 // indirect
	github.com/valyala/bytebufferpool v1.0.0 // indirect
	github.com/valyala/fasttemplate v1.2.1 // indirect
	golang.org/x/crypto v0.0.0-20200820211705-5c72a883971a // indirect
	golang.org/x/exp v0.0.0-20231110203233-9a3e6036ecaa // indirect
	golang.org/x/net v0.0.0-20200822124328-c89045814202 // indirect
	golang.org/x/sys v0.14.0 // indirect
	golang.org/x/text v0.3.7 // indirect
)
